{
    "basePath": "/api/v1/",
    "swaggerVersion": "1.2",
    "apiVersion": "1",
    "resourcePath": "/Subject",
    "apis": [
        {
            "path": "subject",
            "description": "Subject",
            "operations": [
                {
                    "method": "GET",
                    "summary": "Subject",
                    "nickname": "Users",
                    "parameters": [
                        {
                            "paramType": "query",
                            "name": "access_token",
                            "type": "string",
                            "required": true,
                            "description": "Username"
                        },
                        {
                            "paramType": "form",
                            "name": "user_id",
                            "type": "string",
                            "required": true,
                            "description": "User id"
                        }
                    ],
                    "responseMessages": [
                        {
                            "code": 200,
                            "message": "status = 0, No data available"
                        },
                        {
                            "code": 200,
                            "message": "status = 0, Please enter correct user Id"
                        },
                        {
                            "code": 200,
                            "message": "status = 1, Success"
                        },
                        {
                            "code": 404,
                            "message": "Not found"
                        }
                    ],
                    "notes": ""
                }
            ]
        }
    ],
    "produces": [
        "application/json"
    ]
}