{
    "basePath": "/api/v1/",
    "swaggerVersion": "1.2",
    "apiVersion": "1",
    "resourcePath": "/Users",
    "apis": [
        {
            "path": "auth",
            "description": "Authentication",
            "operations": [
                {
                    "method": "POST",
                    "summary": "Authentication with client_id and client_secret",
                    "nickname": "Users",
                    "parameters": [
                        {
                            "paramType": "form",
                            "name": "client_id",
                            "type": "string",
                            "required": true,
                            "description": "client id"
                        },
                        {
                            "paramType": "form",
                            "name": "client_secret",
                            "type": "string",
                            "required": true,
                            "description": "client secret"
                        },
                        {
                            "paramType": "form",
                            "name": "grant_type",
                            "type": "string",
                            "required": true,
                            "description": "grant type default client_credentials"
                        }
                    ],
                    "responseMessages": [
                        {
                            "code": 200,
                            "message": "status = 0, Invalid client_id or client_secret key"
                        },
                        {
                            "code": 200,
                            "message": "status = 1, Success"
                        },
                        {
                            "code": 404,
                            "message": "Not found"
                        }
                    ],
                    "notes": ""
                }
            ]
        },
        {
            "path": "login",
            "description": "User login",
            "operations": [
                {
                    "method": "POST",
                    "summary": "User login with username and password",
                    "nickname": "Users",
                    "parameters": [
                        {
                            "paramType": "query",
                            "name": "access_token",
                            "type": "string",
                            "required": true,
                            "description": "Username"
                        },
                        {
                            "paramType": "form",
                            "name": "username",
                            "type": "string",
                            "required": true,
                            "description": "Username"
                        },
                        {
                            "paramType": "form",
                            "name": "ud_id",
                            "type": "string",
                            "required": true,
                            "description": "UDID"
                        },
                        {
                            "paramType": "form",
                            "name": "mobile_type",
                            "type": "string",
                            "required": true,
                            "description": "Mobile type (ANDROID,IPHONE)"
                        },
                        {
                            "paramType": "form",
                            "name": "password",
                            "type": "string",
                            "required": true,
                            "description": "password"
                        }
                    ],
                    "responseMessages": [
                        {
                            "code": 200,
                            "message": "status = 0, Invalid username or password"
                        },
                        {
                            "code": 200,
                            "message": "status = 0, Password incorrect"
                        },
                        {
                            "code": 200,
                            "message": "status = 1, Success"
                        },
                        {
                            "code": 404,
                            "message": "Not found"
                        }
                    ],
                    "notes": ""
                }
            ]
        },
        {
            "path": "register",
            "description": "User register",
            "operations": [
                {
                    "method": "POST",
                    "summary": "User register",
                    "nickname": "Users",
                    "parameters": [
                        {
                            "paramType": "query",
                            "name": "access_token",
                            "type": "string",
                            "required": true,
                            "description": "Username"
                        },
                        {
                            "paramType": "form",
                            "name": "fullname",
                            "type": "string",
                            "required": true,
                            "description": "Full name"
                        },
                        {
                            "paramType": "form",
                            "name": "mobile",
                            "type": "string",
                            "required": true,
                            "description": "Mobile no."
                        },
                        {
                            "paramType": "form",
                            "name": "email",
                            "type": "string",
                            "required": true,
                            "description": "Email"
                        },
                        {
                            "paramType": "form",
                            "name": "birthdate",
                            "type": "string",
                            "required": true,
                            "description": "Birthdate (Y-m-d)",
                            "format": "date"
                        },
                        {
                            "paramType": "form",
                            "name": "profile_pic",
                            "type": "file",
                            "required": false,
                            "description": "Profile Pic"
                        },
                        {
                            "paramType": "form",
                            "name": "ud_id",
                            "type": "string",
                            "required": true,
                            "description": "UDID"
                        },
                        {
                            "paramType": "form",
                            "name": "mobile_type",
                            "type": "string",
                            "required": true,
                            "description": "Mobile type (ANDROID,IPHONE)"
                        },
                        {
                            "paramType": "form",
                            "name": "password",
                            "type": "string",
                            "required": true,
                            "description": "Password"
                        }
                    ],
                    "responseMessages": [
                        {
                            "code": 200,
                            "message": "status = 0, User already exists"
                        },
                        {
                            "code": 200,
                            "message": "status = 1, Success"
                        },
                        {
                            "code": 404,
                            "message": "Not found"
                        }
                    ],
                    "notes": ""
                }
            ]
        },
        {
            "path": "subject",
            "description": "Subject",
            "operations": [
                {
                    "method": "GET",
                    "summary": "Subject",
                    "nickname": "Users",
                    "parameters": [
                        {
                            "paramType": "query",
                            "name": "access_token",
                            "type": "string",
                            "required": true,
                            "description": "Username"
                        },
                        {
                            "paramType": "form",
                            "name": "user_id",
                            "type": "string",
                            "required": true,
                            "description": "User id"
                        }
                    ],
                    "responseMessages": [
                        {
                            "code": 200,
                            "message": "status = 0, No data available"
                        },
                        {
                            "code": 200,
                            "message": "status = 0, Please enter correct user Id"
                        },
                        {
                            "code": 200,
                            "message": "status = 1, Success"
                        },
                        {
                            "code": 404,
                            "message": "Not found"
                        }
                    ],
                    "notes": ""
                }
            ]
        }
    ],
    "produces": [
        "application/json"
    ]
}